<?xml version="1.0" encoding="utf-8" standalone="no"?>
<!DOCTYPE svg PUBLIC "-//W3C//DTD SVG 1.1//EN"
  "http://www.w3.org/Graphics/SVG/1.1/DTD/svg11.dtd">
<!-- Created with matplotlib (https://matplotlib.org/) -->
<svg height="108pt" version="1.1" viewBox="0 0 144 108" width="144pt" xmlns="http://www.w3.org/2000/svg" xmlns:xlink="http://www.w3.org/1999/xlink">
 <defs>
  <style type="text/css">
*{stroke-linecap:butt;stroke-linejoin:round;}
  </style>
 </defs>
 <g id="figure_1">
  <g id="patch_1">
   <path d="M 0 108 
L 144 108 
L 144 0 
L 0 0 
z
" style="fill:none;"/>
  </g>
  <g id="axes_1">
   <g id="patch_2">
    <path d="M 18 96.12 
L 129.6 96.12 
L 129.6 12.96 
L 18 12.96 
z
" style="fill:none;"/>
   </g>
   <g id="matplotlib.axis_1"/>
   <g id="matplotlib.axis_2"/>
   <g id="line2d_1">
    <defs>
     <path d="M 2.5 0 
L -2.5 -2.5 
L -2.5 2.5 
z
" id="ma960d6c3af" style="stroke:#000000;stroke-linejoin:miter;"/>
    </defs>
    <g>
     <use style="stroke:#000000;stroke-linejoin:miter;" x="129.6" xlink:href="#ma960d6c3af" y="92.34"/>
    </g>
   </g>
   <g id="line2d_2">
    <defs>
     <path d="M 0 -2.5 
L -2.5 2.5 
L 2.5 2.5 
z
" id="m6e70ef8fe4" style="stroke:#000000;stroke-linejoin:miter;"/>
    </defs>
    <g>
     <use style="stroke:#000000;stroke-linejoin:miter;" x="73.8" xlink:href="#m6e70ef8fe4" y="12.96"/>
    </g>
   </g>
   <g id="line2d_3">
    <path clip-path="url(#pe5fd7b86f3)" d="M 23.072727 16.74 
L 25.143228 22.785481 
L 27.213729 28.579067 
L 29.28423 34.120758 
L 31.354731 39.410554 
L 33.425232 44.448455 
L 35.495733 49.234461 
L 37.566234 53.768571 
L 39.636735 58.050787 
L 41.707236 62.081108 
L 43.777737 65.859534 
L 45.848237 69.386064 
L 47.918738 72.6607 
L 49.989239 75.68344 
L 52.05974 78.454286 
L 54.130241 80.973236 
L 56.200742 83.240292 
L 58.271243 85.255452 
L 60.341744 87.018717 
L 62.412245 88.530087 
L 64.482746 89.789563 
L 66.553247 90.797143 
L 68.623748 91.552828 
L 70.694249 92.056618 
L 72.76475 92.308513 
L 74.83525 92.308513 
L 76.905751 92.056618 
L 78.976252 91.552828 
L 81.046753 90.797143 
L 83.117254 89.789563 
L 85.187755 88.530087 
L 87.258256 87.018717 
L 89.328757 85.255452 
L 91.399258 83.240292 
L 93.469759 80.973236 
L 95.54026 78.454286 
L 97.610761 75.68344 
L 99.681262 72.6607 
L 101.751763 69.386064 
L 103.822263 65.859534 
L 105.892764 62.081108 
L 107.963265 58.050787 
L 110.033766 53.768571 
L 112.104267 49.234461 
L 114.174768 44.448455 
L 116.245269 39.410554 
L 118.31577 34.120758 
L 120.386271 28.579067 
L 122.456772 22.785481 
L 124.527273 16.74 
" style="fill:none;stroke:#1f77b4;stroke-linecap:square;stroke-width:1.5;"/>
   </g>
   <g id="patch_3">
    <path d="M 73.8 96.12 
L 73.8 12.96 
" style="fill:none;stroke:#000000;stroke-linecap:square;stroke-linejoin:miter;stroke-width:0.8;"/>
   </g>
   <g id="patch_4">
    <path d="M 18 92.34 
L 129.6 92.34 
" style="fill:none;stroke:#000000;stroke-linecap:square;stroke-linejoin:miter;stroke-width:0.8;"/>
   </g>
  </g>
 </g>
 <defs>
  <clipPath id="pe5fd7b86f3">
   <rect height="83.16" width="111.6" x="18" y="12.96"/>
  </clipPath>
 </defs>
</svg>
